%YAML 1.1
%TAG !u! tag:unity3d.com,2011:
--- !u!221 &22100000
AnimatorOverrideController:
  m_ObjectHideFlags: 0
  m_CorrespondingSourceObject: {fileID: 0}
  m_PrefabInstance: {fileID: 0}
  m_PrefabAsset: {fileID: 0}
  m_Name: TinDeathOverrideController
  m_Controller: {fileID: 9100000, guid: dacc9ed90626c02439f0df06e7660dbe, type: 2}
  m_Clips:
  - m_OriginalClip: {fileID: 7400000, guid: 9df4b635f38781a448aad09677c136b8, type: 2}
    m_OverrideClip: {fileID: 7400000, guid: a8e4d6ec2671ac0418cc78021932b93d, type: 2}
