%YAML 1.1
%TAG !u! tag:unity3d.com,2011:
--- !u!221 &22100000
AnimatorOverrideController:
  m_ObjectHideFlags: 0
  m_CorrespondingSourceObject: {fileID: 0}
  m_PrefabInstance: {fileID: 0}
  m_PrefabAsset: {fileID: 0}
  m_Name: Dwarf2OverrideController
  m_Controller: {fileID: 9100000, guid: 0ed217413b640e04d924a715f4323116, type: 2}
  m_Clips:
  - m_OriginalClip: {fileID: 7400000, guid: 3c82d1eca46201448bc48691d670df0f, type: 2}
    m_OverrideClip: {fileID: 7400000, guid: 710e0d6e4d882d84d9029f45fe39f708, type: 2}
  - m_OriginalClip: {fileID: 7400000, guid: 93e790bac70094c44b702c5f1e7c5859, type: 2}
    m_OverrideClip: {fileID: 7400000, guid: 09e45360c8f11c34083ce87024bd1fd8, type: 2}
  - m_OriginalClip: {fileID: 7400000, guid: cf6d7e5eb400934479a59334b7c93e17, type: 2}
    m_OverrideClip: {fileID: 7400000, guid: 00292f0aedda486418ce984343f74bee, type: 2}
  - m_OriginalClip: {fileID: 7400000, guid: bfca52fb5ecd90a4db0b5383435354e6, type: 2}
    m_OverrideClip: {fileID: 7400000, guid: c2b9f503ec8d30946b17c3c542429030, type: 2}
  - m_OriginalClip: {fileID: 7400000, guid: 80b57be72014a3a4eb9dbfe32a498341, type: 2}
    m_OverrideClip: {fileID: 7400000, guid: 7c985381bd4176745b58439d24c1271e, type: 2}
  - m_OriginalClip: {fileID: 7400000, guid: a7082ecfd3ce9ff47bb20b251da693ef, type: 2}
    m_OverrideClip: {fileID: 7400000, guid: 6cf56b39937e8df4a9937b63b48344e3, type: 2}
  - m_OriginalClip: {fileID: 7400000, guid: a818980512ead0b41a5345a005c1985c, type: 2}
    m_OverrideClip: {fileID: 7400000, guid: 3c28e0de1ad50be429795cb3645946e9, type: 2}
  - m_OriginalClip: {fileID: 7400000, guid: e566252a4e75799448ec8e199a46055b, type: 2}
    m_OverrideClip: {fileID: 7400000, guid: f58ac33a331f58f49a22389a0a3f8149, type: 2}
  - m_OriginalClip: {fileID: 7400000, guid: 675623ea178045648ac30ed890ad83be, type: 2}
    m_OverrideClip: {fileID: 7400000, guid: 4be48da1cf533684487032f766d57f7e, type: 2}
  - m_OriginalClip: {fileID: 7400000, guid: 880d039348a61524d93af58a2dc1c799, type: 2}
    m_OverrideClip: {fileID: 7400000, guid: 590140cd2ad101a43b4ebc7aff2751f2, type: 2}
  - m_OriginalClip: {fileID: 7400000, guid: 6458bbbc60cce81428edfda29c976c48, type: 2}
    m_OverrideClip: {fileID: 7400000, guid: 085c7cf8ea2fde247b6efea6b0e38fee, type: 2}
  - m_OriginalClip: {fileID: 7400000, guid: 11abfb91b70db394db61fe16b1b7377f, type: 2}
    m_OverrideClip: {fileID: 7400000, guid: 85ef0c78f20f72d4386a12cbd4190a2a, type: 2}
