%YAML 1.1
%TAG !u! tag:unity3d.com,2011:
--- !u!221 &22100000
AnimatorOverrideController:
  m_ObjectHideFlags: 0
  m_CorrespondingSourceObject: {fileID: 0}
  m_PrefabInstance: {fileID: 0}
  m_PrefabAsset: {fileID: 0}
  m_Name: ChainAttackOverrideController
  m_Controller: {fileID: 9100000, guid: 3b2731645455b1c439ef10b1fa63f471, type: 2}
  m_Clips:
  - m_OriginalClip: {fileID: 7400000, guid: 55d761b6e0c506d44a163acba36d0489, type: 2}
    m_OverrideClip: {fileID: 7400000, guid: b88786390a2c72542b8ea1354a5bbd0c, type: 2}
  - m_OriginalClip: {fileID: 7400000, guid: 4f3beea7d7e54074db9d9b3a88866361, type: 2}
    m_OverrideClip: {fileID: 7400000, guid: bb58194368fabc040bc67c3f4d0c7065, type: 2}
  - m_OriginalClip: {fileID: 7400000, guid: 9f14df5c17497bb43a53848529c43a51, type: 2}
    m_OverrideClip: {fileID: 7400000, guid: d254fe924b8824e4984bd85b77813e9e, type: 2}
