%YAML 1.1
%TAG !u! tag:unity3d.com,2011:
--- !u!221 &22100000
AnimatorOverrideController:
  m_ObjectHideFlags: 0
  m_CorrespondingSourceObject: {fileID: 0}
  m_PrefabInstance: {fileID: 0}
  m_PrefabAsset: {fileID: 0}
  m_Name: CleaveAttackOverrideController
  m_Controller: {fileID: 9100000, guid: 3b2731645455b1c439ef10b1fa63f471, type: 2}
  m_Clips:
  - m_OriginalClip: {fileID: 7400000, guid: 55d761b6e0c506d44a163acba36d0489, type: 2}
    m_OverrideClip: {fileID: 7400000, guid: 29f2d930c6a1b8a409d686d8665a6010, type: 2}
